C:\DGSearch\src\main\java\searchEngine\OcurrenceChain.java
C:\DGSearch\src\main\java\searchEngine\Ocurence.java
C:\DGSearch\src\main\java\searchEngine\SearchEngine.java
C:\DGSearch\src\main\java\Main.java
